-------------------------------------------------------------------------------
Test set: com.mazeed.vro.process.AppTest
-------------------------------------------------------------------------------
Tests run: 1, Failures: 0, Errors: 0, Skipped: 0, Time elapsed: 0 sec - in com.mazeed.vro.process.AppTest
